R programming_lecture 5
…
### 1.3 결측치 요약 및 시각화
  
* naniar 패키지를 활용하시면 결측치를 쉽고 빠르게 파악하실 수 있습니다.  
* 우선 **miss_case_summary** 함수를 활용하시면 행 기준으로 결측치가 몇 개 있는지  
결측치가 그 행의 전체 데이터 중 몇 퍼센트를 차지하는지 알려줍니다.  

* **miss_var_summary** 함수는 열 기준으로 알려줍니다.  

```r
# 관찰값(행) 기준의 결측치 탐색
miss_case_summary(riskfactors) 
```

```
## # A tibble: 245 x 3
##     case n_miss pct_miss
##    <int>  <int>    <dbl>
##  1    91     15     44.1
##  2   133     15     44.1
##  3     4     12     35.3
##  4    49     12     35.3
##  5   185     12     35.3
##  6    10     11     32.4
##  7   231     10     29.4
##  8    14      9     26.5
##  9    61      8     23.5
## 10    80      8     23.5
## # ... with 235 more rows
```

```r
# 변수(열) 기준의 결측치 탐색
miss_var_summary(riskfactors) 
```

```
## # A tibble: 34 x 3
##    variable      n_miss pct_miss
##    <chr>          <int>    <dbl>
##  1 pregnant         215    87.8 
##  2 smoke_stop       212    86.5 
##  3 smoke_last       161    65.7 
##  4 drink_average    135    55.1 
##  5 drink_days       134    54.7 
##  6 smoke_days       128    52.2 
##  7 health_poor      113    46.1 
##  8 bmi               11     4.49
##  9 weight_lbs        10     4.08
## 10 diet_fruit         8     3.27
## # ... with 24 more rows
```
…
